<?xml version="1.0" encoding="utf-8"?>
<!-- Generator: Adobe Illustrator 22.0.1, SVG Export Plug-In . SVG Version: 6.00 Build 0)  -->
<svg version="1.1" id="Capa_1" xmlns="http://www.w3.org/2000/svg" xmlns:xlink="http://www.w3.org/1999/xlink" x="0px" y="0px"
	 viewBox="0 0 32 32" style="enable-background:new 0 0 32 32;" xml:space="preserve">
<style type="text/css">
	.st0{fill:url(#XMLID_2_);}
	.st1{fill:url(#XMLID_3_);}
	.st2{fill:url(#XMLID_4_);}
	.st3{fill:url(#XMLID_5_);}
	.st4{fill:url(#SVGID_1_);}
</style>
<g>
	<g>
		<g id="XMLID_19_">
			<linearGradient id="XMLID_2_" gradientUnits="userSpaceOnUse" x1="19.3396" y1="31.144" x2="9.2033" y2="0.1961">
				<stop  offset="0" style="stop-color:#7D6AFF"/>
				<stop  offset="1" style="stop-color:#26A3A1"/>
			</linearGradient>
			<path id="XMLID_20_" class="st0" d="M14.1,23.5c-0.3,0-0.6-0.1-0.9-0.4c-1.9-1.9-2.9-4.5-2.9-7.1c0-3.3,1.6-6.4,4.2-8.3
				c0.5-0.4,1.3-0.3,1.7,0.3c0.4,0.5,0.3,1.3-0.3,1.7c-2,1.5-3.2,3.8-3.2,6.3c0,2,0.8,4,2.2,5.4c0.5,0.5,0.5,1.2,0,1.7
				C14.7,23.4,14.4,23.5,14.1,23.5z"/>
		</g>
		<g id="XMLID_17_">
			<linearGradient id="XMLID_3_" gradientUnits="userSpaceOnUse" x1="20.1575" y1="30.8761" x2="10.0212" y2="-7.180824e-02">
				<stop  offset="0" style="stop-color:#7D6AFF"/>
				<stop  offset="1" style="stop-color:#26A3A1"/>
			</linearGradient>
			<path id="XMLID_18_" class="st1" d="M19.2,26.2c-0.1,0-0.1,0-0.2,0c-0.9-0.1-1.8-0.4-2.6-0.7c-0.6-0.3-0.9-1-0.6-1.6
				c0.3-0.6,1-0.9,1.6-0.6c0.6,0.3,1.3,0.5,2,0.6c0.7,0.1,1.1,0.7,1,1.4C20.4,25.7,19.8,26.2,19.2,26.2z"/>
		</g>
		<g id="XMLID_15_">
			<linearGradient id="XMLID_4_" gradientUnits="userSpaceOnUse" x1="25.7677" y1="29.0387" x2="15.6314" y2="-1.9093">
				<stop  offset="0" style="stop-color:#7D6AFF"/>
				<stop  offset="1" style="stop-color:#26A3A1"/>
			</linearGradient>
			<path id="XMLID_16_" class="st2" d="M14.7,5.2c-0.4,0-0.9-0.2-1.1-0.7c-0.3-0.6,0-1.3,0.6-1.6C16,2,17.9,1.5,19.9,1.4
				c0.7,0,1.2,0.5,1.3,1.2S20.7,3.8,20,3.8c-1.7,0.1-3.3,0.5-4.8,1.2C15.1,5.2,14.9,5.2,14.7,5.2z"/>
		</g>
		<g id="XMLID_13_">
			<linearGradient id="XMLID_5_" gradientUnits="userSpaceOnUse" x1="16.1032" y1="32.2041" x2="5.9669" y2="1.2561">
				<stop  offset="0" style="stop-color:#7D6AFF"/>
				<stop  offset="1" style="stop-color:#26A3A1"/>
			</linearGradient>
			<path id="XMLID_14_" class="st3" d="M19.5,30.6c0,0-0.1,0-0.1,0C11.9,29.9,6,23.5,6,16c0-3.9,1.5-7.6,4.3-10.4
				c0.5-0.5,1.2-0.5,1.7,0c0.5,0.5,0.5,1.2,0,1.7C9.7,9.7,8.4,12.7,8.4,16c0,6.3,4.9,11.6,11.1,12.1c0.7,0.1,1.2,0.6,1.1,1.3
				C20.6,30.1,20.1,30.6,19.5,30.6z"/>
		</g>
	</g>
	<g>
		<linearGradient id="SVGID_1_" gradientUnits="userSpaceOnUse" x1="25.4993" y1="29.1266" x2="15.363" y2="-1.8214">
			<stop  offset="0" style="stop-color:#7D6AFF"/>
			<stop  offset="1" style="stop-color:#26A3A1"/>
		</linearGradient>
		<path class="st4" d="M24.7,18.3c-0.3,0-0.5,0.1-0.7,0.2c-0.1,0.1-0.2,0.1-0.2,0.2c-0.6,0.5-1.4,0.8-2.2,0.8C19.6,19.5,18,18,18,16
			c0-1.9,1.6-3.5,3.5-3.5c0.8,0,1.5,0.3,2.1,0.7c0.2,0.1,0.3,0.2,0.4,0.4c0.2,0.2,0.4,0.2,0.6,0.2c0.7,0,1.3-0.6,1.3-1.3
			c0-0.3-0.1-0.5-0.2-0.7c-0.1-0.2-0.2-0.3-0.4-0.4c-1.1-0.9-2.4-1.4-3.8-1.4c-3.3,0-6,2.7-6,6s2.7,6,6,6c1.4,0,2.7-0.5,3.8-1.3
			c0.2-0.1,0.4-0.2,0.5-0.4c0.1-0.2,0.2-0.4,0.2-0.7C26,18.9,25.4,18.3,24.7,18.3z"/>
	</g>
</g>
</svg>
